module gitlab.com/bennu7/pzn-go-rest-api.git

go 1.19

require (
	github.com/go-playground/assert/v2 v2.2.0
	github.com/go-playground/validator/v10 v10.11.2
	github.com/go-sql-driver/mysql v1.7.0
	github.com/julienschmidt/httprouter v1.3.0
)

require (
	github.com/go-playground/locales v0.14.1 // indirect
	github.com/go-playground/universal-translator v0.18.1 // indirect
	github.com/leodido/go-urn v1.2.1 // indirect
	github.com/stretchr/testify v1.8.1 // indirect
	golang.org/x/crypto v0.5.0 // indirect
	golang.org/x/sys v0.4.0 // indirect
	golang.org/x/text v0.6.0 // indirect
)
